%YAML 1.1
%TAG !u! tag:unity3d.com,2011:
--- !u!114 &11400000
MonoBehaviour:
  m_ObjectHideFlags: 0
  m_CorrespondingSourceObject: {fileID: 0}
  m_PrefabInstance: {fileID: 0}
  m_PrefabAsset: {fileID: 0}
  m_GameObject: {fileID: 0}
  m_Enabled: 1
  m_EditorHideFlags: 0
  m_Script: {fileID: 11500000, guid: aece26d9a854b5b44a8e6e82b3c66dcb, type: 3}
  m_Name: IncreaseDamage
  m_EditorClassIdentifier: 
  cost: 10
  damage: 50
  DamageCooldownInSecond: 0
