%YAML 1.1
%TAG !u! tag:unity3d.com,2011:
--- !u!114 &11400000
MonoBehaviour:
  m_ObjectHideFlags: 0
  m_CorrespondingSourceObject: {fileID: 0}
  m_PrefabInstance: {fileID: 0}
  m_PrefabAsset: {fileID: 0}
  m_GameObject: {fileID: 0}
  m_Enabled: 1
  m_EditorHideFlags: 0
  m_Script: {fileID: 11500000, guid: 55a0be80fe3f5444f9e335ad30bd2caa, type: 3}
  m_Name: PowerGun
  m_EditorClassIdentifier: 
  magicDamage: 100
  Cooldown: 2
  cost: 10
  TriggerTag: PowerGun
