# Blender v2.79 (sub 0) OBJ File: ''
# www.blender.org
mtllib ANEUNEU.mtl
o Plane.003_Plane.000
v 0.275221 -0.000000 -0.453258
v 0.275221 -0.000000 -0.749231
v 0.878004 -0.000000 -0.749231
v 0.878004 -0.000000 -0.453258
v 0.275221 -0.000000 0.730638
v 0.275221 -0.000000 0.434664
v 0.878004 -0.000000 0.434664
v 0.878004 -0.000000 0.730638
v -1.121996 -0.000000 0.730638
v -0.634834 -0.000000 0.730638
v -0.634834 0.064722 0.730638
v -1.121996 0.064722 0.730638
v 0.878004 0.064722 0.730638
v 0.275221 0.064722 0.730638
v 0.275221 0.064722 0.434664
v 0.878004 0.064722 0.434664
v -1.121996 -0.000000 -0.157284
v -1.121996 -0.000000 -0.453258
v -0.634834 -0.000000 -0.453258
v -0.634834 -0.000000 -0.157284
v -1.121996 -0.000000 0.138689
v -0.634834 -0.000000 0.138689
v -1.121996 -0.000000 0.434664
v -0.634834 -0.000000 0.434664
v -1.121996 -0.000000 -0.749231
v -0.634834 -0.000000 -0.749231
v -1.121996 0.064722 0.138690
v -1.121996 0.064722 -0.157284
v -0.130555 -0.000000 -0.157284
v -0.130555 -0.000000 -0.453258
v 0.275221 -0.000000 -0.157284
v -0.130555 -0.000000 0.730638
v -0.130555 0.064722 0.730638
v -0.130555 -0.000000 0.138689
v 0.275221 -0.000000 0.138689
v 0.878004 0.064722 -0.453258
v 0.275221 0.064722 -0.453258
v -0.130555 -0.000000 0.434664
v -0.130555 -0.000000 -0.749231
v -0.634834 0.064722 -0.749231
v -0.130555 0.064722 -0.749231
v -0.130555 0.064722 -0.157284
v -0.130555 0.064722 -0.453258
v 0.275221 0.064722 -0.157284
v 0.275221 0.064722 0.138690
v -0.130555 0.064722 0.434664
v -0.130555 0.064722 0.138690
v -0.634834 0.064722 0.138690
v -0.634834 0.064722 0.434664
v -1.121996 0.064722 -0.453258
v -1.121996 0.064722 -0.749231
v 0.001273 0.163409 0.566491
v 0.143393 0.163409 0.566491
v 0.143393 0.163409 0.138690
v 0.001273 0.163409 0.138690
v 0.275221 0.064722 -0.749231
v 0.275221 0.163409 0.598809
v 0.746176 0.163409 0.598809
v 0.746176 0.163409 0.566491
v -0.130555 0.163409 0.598809
v 0.143393 0.163409 -0.585084
v 0.746176 0.163409 -0.585084
v 0.746176 0.163409 -0.617404
v 0.275221 0.163409 -0.617404
v -1.121996 0.064722 0.434664
v 0.001273 0.163409 -0.157284
v 0.143393 0.163409 -0.157284
v 0.001273 0.163409 -0.585084
v -0.990168 0.163409 -0.453258
v -0.766662 0.163409 -0.585084
v -0.634834 0.163409 -0.617404
v -0.990168 0.163409 -0.617404
v -0.130555 0.163409 -0.617404
v -0.634834 0.163409 0.598809
v -0.766662 0.163409 0.566491
v -0.990168 0.163409 -0.157284
v -0.766662 0.163409 -0.157284
v -0.990168 0.163409 0.138690
v -0.766662 0.163409 0.138690
v -0.990168 0.163409 0.434664
v 0.878004 0.064722 -0.749231
v -0.634834 0.064722 -0.453258
v -0.634834 0.064722 -0.157284
v -0.990168 0.163409 0.598809
vn 0.0000 -1.0000 -0.0000
vn 0.0000 0.0000 1.0000
vn 0.0000 0.0000 -1.0000
vn -1.0000 0.0000 0.0000
vn 1.0000 -0.0000 0.0000
vn 0.0000 1.0000 0.0000
vn -0.5993 0.8005 0.0000
vn 0.0000 0.8005 -0.5993
vn 0.5993 0.8005 0.0000
vn 0.0000 0.8005 0.5993
usemtl None.003
s 1
f 1//1 2//1 3//1 4//1
f 5//1 6//1 7//1 8//1
f 9//2 10//2 11//2 12//2
f 5//2 8//2 13//2 14//2
f 7//3 6//3 15//3 16//3
f 17//1 18//1 19//1 20//1
f 21//1 17//1 20//1 22//1
f 23//1 21//1 22//1 24//1
f 9//1 23//1 24//1 10//1
f 18//1 25//1 26//1 19//1
f 17//4 21//4 27//4 28//4
f 29//1 30//1 1//1 31//1
f 32//2 5//2 14//2 33//2
f 34//1 29//1 31//1 35//1
f 1//2 4//2 36//2 37//2
f 38//1 34//1 35//1 6//1
f 10//1 24//1 38//1 32//1
f 32//1 38//1 6//1 5//1
f 19//1 26//1 39//1 30//1
f 30//1 39//1 2//1 1//1
f 39//3 26//3 40//3 41//3
f 30//4 29//4 42//4 43//4
f 35//5 31//5 44//5 45//5
f 34//4 38//4 46//4 47//4
f 24//5 22//5 48//5 49//5
f 8//5 7//5 16//5 13//5
f 25//4 18//4 50//4 51//4
f 52//6 53//6 54//6 55//6
f 2//3 39//3 41//3 56//3
f 31//5 1//5 37//5 44//5
f 57//6 58//6 59//6 53//6
f 60//6 57//6 53//6 52//6
f 29//4 34//4 47//4 42//4
f 61//6 62//6 63//6 64//6
f 26//3 25//3 51//3 40//3
f 21//4 23//4 65//4 27//4
f 66//6 67//6 61//6 68//6
f 69//6 70//6 71//6 72//6
f 68//6 61//6 64//6 73//6
f 70//6 68//6 73//6 71//6
f 55//6 54//6 67//6 66//6
f 18//4 17//4 28//4 50//4
f 38//3 24//3 49//3 46//3
f 74//6 60//6 52//6 75//6
f 76//6 77//6 70//6 69//6
f 78//6 79//6 77//6 76//6
f 80//6 75//6 79//6 78//6
f 10//2 32//2 33//2 11//2
f 4//5 3//5 81//5 36//5
f 19//2 30//2 43//2 82//2
f 20//5 19//5 82//5 83//5
f 3//3 2//3 56//3 81//3
f 22//5 20//5 83//5 48//5
f 6//5 35//5 45//5 15//5
f 84//6 74//6 75//6 80//6
f 28//7 27//7 78//7 76//7
f 50//7 28//7 76//7 69//7
f 51//7 50//7 69//7 72//7
f 40//8 51//8 72//8 71//8
f 36//9 81//9 63//9 62//9
f 14//10 13//10 58//10 57//10
f 65//7 12//7 84//7 80//7
f 27//7 65//7 80//7 78//7
f 13//9 16//9 59//9 58//9
f 12//10 11//10 74//10 84//10
f 41//8 40//8 71//8 73//8
f 46//8 49//8 75//8 52//8
f 68//10 70//10 82//10 43//10
f 83//9 82//9 70//9 77//9
f 48//9 83//9 77//9 79//9
f 49//9 48//9 79//9 75//9
f 11//10 33//10 60//10 74//10
f 33//10 14//10 57//10 60//10
f 81//8 56//8 64//8 63//8
f 56//8 41//8 73//8 64//8
f 16//8 15//8 53//8 59//8
f 62//10 61//10 37//10 36//10
f 66//7 68//7 43//7 42//7
f 44//9 37//9 61//9 67//9
f 55//7 66//7 42//7 47//7
f 45//9 44//9 67//9 54//9
f 52//7 55//7 47//7 46//7
f 15//9 45//9 54//9 53//9
f 23//4 9//4 12//4 65//4
