# Blender v2.79 (sub 0) OBJ File: 'SteinePack1.blend'
# www.blender.org
mtllib SteinNEU!!!1.mtl
o Cube.003
v -5.622885 0.345993 1.855644
v -5.637733 0.158560 2.070936
v -5.509850 0.417260 1.492297
v -4.960514 0.405807 1.319650
v -4.636911 0.358819 1.753304
v -5.190616 0.268433 1.958676
v -5.060500 0.472123 1.634696
v -5.125545 -0.299270 1.738318
v -5.154273 0.083199 2.220507
v -4.418277 0.182815 1.901025
v -5.037762 0.182495 1.224278
v -5.911029 0.285765 1.533196
v -5.202299 0.457775 1.257473
v -5.465732 0.431241 1.363218
v -5.754199 0.214013 1.185600
v -5.533289 0.187449 1.125766
v -4.751659 0.355776 1.869861
v -4.507765 0.151247 2.055853
v -4.826409 0.160078 2.166118
v -5.431205 -0.228188 1.880838
v -5.672797 0.112541 2.084569
v -6.026091 -0.006067 1.504843
v -5.597193 -0.291815 1.590965
v -5.078610 -0.267769 1.349674
v -5.054582 -0.042580 1.224330
v -4.330414 0.081072 1.921420
v -4.292871 -0.157475 1.924015
v -5.172210 -0.247543 2.096794
v -5.160802 0.049273 2.236657
v -5.608801 -0.185690 1.150076
v -5.813076 0.059343 1.095447
v -5.660529 -0.186130 1.178950
v -5.628717 0.049408 1.058368
v -4.520816 -0.111581 2.044755
v -4.457651 0.091003 2.075855
v -4.808468 -0.201629 2.154950
v -4.806931 0.110024 2.200027
v -4.635879 0.321454 1.558624
v -4.369357 0.163378 1.726165
v -4.427643 0.192939 1.539273
v -4.228867 -0.409368 1.388008
v -4.088073 -0.336893 1.568596
v -4.278439 -0.086170 1.360668
v -4.199538 -0.010072 1.715117
vt 0.131240 0.601841
vt 0.182585 0.546474
vt 0.217891 0.536030
vt 0.224275 0.580316
vt 0.336152 0.459257
vt 0.271365 0.461492
vt 0.320450 0.424147
vt 0.232487 0.371551
vt 0.165462 0.425889
vt 0.160966 0.360774
vt 0.098696 0.466769
vt 0.073823 0.419754
vt 0.197683 0.488358
vt 0.249175 0.440952
vt 0.128910 0.520615
vt 0.301213 0.391324
vt 0.277042 0.497660
vt 0.325741 0.499474
vt 0.061035 0.524537
vt 0.141193 0.540267
vt 0.087843 0.587835
vt 0.722402 0.142262
vt 0.718735 0.085187
vt 0.773142 0.111425
vt 0.757701 0.175896
vt 0.448988 0.045863
vt 0.458944 0.045832
vt 0.569852 0.053925
vt 0.568998 0.132888
vt 0.476262 0.118428
vt 0.572504 0.196804
vt 0.514534 0.172722
vt 0.348499 0.413253
vt 0.315749 0.380278
vt 0.109787 0.635789
vt 0.066743 0.622063
vt 0.389617 0.457765
vt 0.241643 0.624915
vt 0.389617 0.542594
vt 0.000245 0.541601
vt 0.692193 0.177046
vt 0.633959 0.198563
vt 0.157764 0.353019
vt 0.062257 0.414421
vt 0.236579 0.358122
vt 0.451920 0.250292
vt 0.362314 0.115948
vt 0.696765 0.074714
vt 0.568142 0.000245
vt 0.733592 0.021027
vt 0.574111 0.265012
vt 0.397421 0.012835
vt 0.440069 0.000245
vt 0.727079 0.208647
vt 0.658281 0.256829
vn 0.0022 0.4439 -0.8961
vn 0.0670 0.7904 -0.6089
vn 0.3171 0.7555 -0.5733
vn 0.2991 0.2857 -0.9104
vn 0.6802 0.7321 -0.0353
vn 0.3812 0.9118 0.1527
vn 0.5858 0.7551 0.2941
vn 0.0844 0.6990 0.7101
vn -0.0340 0.8585 0.5116
vn -0.0814 0.6244 0.7768
vn -0.2640 0.8823 0.3896
vn -0.3888 0.6187 0.6827
vn 0.0650 0.9848 0.1610
vn 0.1239 0.8717 0.4740
vn -0.2435 0.9688 0.0456
vn 0.3708 0.7122 0.5960
vn 0.4858 0.7794 -0.3955
vn 0.5808 0.6532 -0.4858
vn -0.7379 0.6736 0.0407
vn -0.2000 0.9195 -0.3384
vn -0.4791 0.6569 -0.5821
vn 0.6003 -0.5409 0.5891
vn 0.8535 -0.5209 -0.0133
vn 0.9096 0.4079 0.0791
vn 0.7716 0.3912 0.5014
vn -0.3385 -0.8102 -0.4785
vn 0.0509 -0.6016 -0.7971
vn 0.0517 -0.8542 -0.5173
vn -0.0159 -0.9908 0.1347
vn -0.3731 -0.9242 0.0814
vn -0.1190 -0.7739 0.6220
vn -0.3538 -0.8180 0.4536
vn 0.5467 0.2543 0.7978
vn 0.0179 -0.0085 -0.9998
vn -0.6133 -0.0569 -0.7878
vn 0.2109 -0.0830 -0.9740
vn 0.5625 0.2337 -0.7930
vn -0.9697 -0.2431 0.0243
vn 0.3999 -0.5896 0.7018
vn 0.1903 -0.6791 0.7089
vn -0.1722 -0.0105 0.9850
vn -0.6605 -0.0877 0.7457
vn 0.1951 0.1892 0.9623
vn 0.4592 -0.7500 -0.4760
usemtl Material
s 1
f 16/1/1 13/2/2 4/3/3 11/4/4
f 39/5/5 5/6/6 10/7/7
f 19/8/8 6/9/9 9/10/10
f 9/10/10 6/9/9 1/11/11 2/12/12
f 5/6/6 7/13/13 6/9/9 17/14/14
f 7/13/13 3/15/15 1/11/11 6/9/9
f 10/7/7 5/6/6 17/14/14 18/16/16
f 11/4/4 4/3/3 38/17/17 40/18/18
f 12/19/19 3/15/15 14/20/20 15/21/21
f 27/22/22 42/23/23 44/24/24 26/25/25
f 4/3/3 13/2/2 14/20/20 3/15/15 7/13/13
f 30/26/26 32/27/27 24/28/28 8/29/29 23/30/30
f 23/30/30 8/29/29 28/31/31 20/32/32
f 26/33/25 10/7/7 18/16/16 35/34/33
f 16/1/1 33/35/34 31/36/35 15/21/21
f 44/37/24 39/5/5 10/7/7 26/33/25
f 25/38/36 11/4/4 40/18/18 43/39/37
f 22/40/38 12/19/19 15/21/21 31/36/35
f 8/29/29 27/22/22 34/41/39 36/42/40 28/31/31
f 29/43/41 9/10/10 2/12/12 21/44/42
f 2/12/12 1/11/11 3/15/15 12/19/19
f 19/8/8 37/45/43 35/34/33 18/16/16
f 13/2/2 16/1/1 15/21/21 14/20/20
f 33/35/34 16/1/1 11/4/4 25/38/36
f 6/9/9 19/8/8 18/16/16 17/14/14
f 37/45/43 19/8/8 9/10/10 29/43/41
f 23/30/30 20/32/32 21/46/42 22/47/38
f 41/48/44 24/28/28 25/49/36 43/50/37
f 24/28/28 41/48/44 42/23/23 27/22/22 8/29/29
f 20/32/32 28/31/31 29/51/41 21/46/42
f 32/27/27 30/26/26 31/52/35 33/53/34
f 30/26/26 23/30/30 22/47/38 31/52/35
f 24/28/28 32/27/27 33/53/34 25/49/36
f 36/42/40 34/41/39 35/54/33 37/55/43
f 34/41/39 27/22/22 26/25/25 35/54/33
f 28/31/31 36/42/40 37/55/43 29/51/41
f 21/44/42 2/12/12 12/19/19 22/40/38
f 5/6/6 39/5/5 40/18/18 38/17/17
f 41/48/44 43/50/37 44/24/24 42/23/23
f 39/5/5 44/37/24 43/39/37 40/18/18
f 5/6/6 38/17/17 4/3/3 7/13/13
