# Blender v2.79 (sub 0) OBJ File: 'Bett.blend'
# www.blender.org
mtllib RuineNEU!!!.mtl
o Cube.001
v 1.000000 -1.000000 -0.366030
v 1.000000 -0.910000 -0.366030
v 1.000000 -0.910000 -1.000000
v 1.000000 -1.000000 -1.000000
v 1.000000 0.203437 0.877990
v 1.000000 0.180225 0.791036
v 1.000000 -0.032006 0.913046
v 1.000000 -0.008794 1.000000
v 1.000000 -1.000000 1.000000
v 1.000000 -0.910000 0.936363
v 1.000000 -0.910000 0.267939
v 1.000000 -1.000000 0.267939
v 1.000000 1.599164 0.109447
v 1.000000 1.537786 0.054270
v 1.000000 1.490699 0.194370
v 1.000000 1.542536 0.267939
v 1.000000 1.264591 -1.000000
v 1.000000 1.222155 -0.920635
v 1.000000 1.490699 -0.926431
v 1.000000 1.542536 -1.000000
v 1.000000 1.241379 0.180985
v 1.000000 1.264591 0.267939
v 1.000000 -1.000000 -1.396219
v 1.000000 -0.910000 -1.332581
v 1.000000 -0.008794 -1.306219
v 1.000000 -0.008794 -1.396219
v 1.000000 1.000000 -1.396219
v 1.000000 0.957564 -1.316854
v 1.000000 0.747802 -1.396219
v 1.000000 0.715975 -1.314195
v 1.000000 -0.752198 1.086210
v 1.000000 -0.690501 1.035834
v 1.000000 1.679047 -0.366030
v 1.000000 1.769047 -0.366030
v 1.191654 -1.000000 -0.366030
v 1.191654 -1.000000 -1.000000
v 1.191654 -0.910000 -1.000000
v 1.191654 -0.910000 -0.366030
v 1.191654 0.203437 0.877990
v 1.139795 -0.008794 1.000000
v 1.139795 -0.032006 0.913046
v 1.191654 0.180225 0.791036
v 1.191654 -1.000000 1.000000
v 1.191654 -1.000000 0.267939
v 1.191654 -0.910000 0.267939
v 1.191654 -0.910000 0.936363
v 1.191654 1.599164 0.109447
v 1.191654 1.542536 0.267939
v 1.191654 1.490699 0.194370
v 1.191654 1.537786 0.054270
v 1.067159 1.264591 -1.000000
v 1.103400 1.542536 -1.000000
v 1.103400 1.490699 -0.926431
v 1.067159 1.222155 -0.920635
v 1.191654 1.264591 0.267939
v 1.191654 1.241379 0.180985
v 1.191654 -1.000000 -1.396219
v 1.316745 -0.008794 -1.396219
v 1.316745 -0.008794 -1.306219
v 1.191654 -0.910000 -1.332581
v 1.264370 1.000000 -1.396219
v 1.264370 0.957564 -1.316854
v 1.191654 0.747802 -1.396219
v 1.191654 0.715975 -1.314195
v 1.333697 -0.744643 1.086210
v 1.333697 -0.682946 1.035834
v 1.191654 1.769047 -0.366030
v 1.191654 1.679047 -0.366030
v 1.000000 -0.251504 0.918875
v 1.180974 -0.253252 0.930424
v 1.000000 1.029148 0.302996
v 1.191654 1.029148 0.302996
v 1.000000 0.232796 -1.308877
v 1.248859 0.232796 -1.308877
v 1.000000 1.663351 -0.319330
v 1.191654 1.663351 -0.319330
v 1.000000 -0.256595 1.000000
v 1.181905 -0.218360 1.011364
v 1.000000 1.052360 0.389950
v 1.191654 1.052360 0.389950
v 1.000000 0.840130 0.511960
v 1.088357 0.840130 0.511960
v 1.000000 0.627899 0.633970
v 1.127796 0.627899 0.633970
v 1.000000 0.415668 0.755980
v 1.233759 0.415668 0.755980
v 1.000000 0.392456 0.669026
v 1.233759 0.392456 0.669026
v 1.000000 0.604687 0.547016
v 1.127796 0.604687 0.547016
v 1.000000 0.816918 0.425006
v 1.088357 0.816918 0.425006
v 1.000000 1.584873 -0.085830
v 1.099065 1.584873 -0.085830
v 1.000000 1.631960 -0.225930
v 1.191654 1.631960 -0.225930
v 1.000000 1.731295 -0.260369
v 1.000000 1.712419 -0.207538
v 1.191654 1.712419 -0.207538
v 1.112282 1.731295 -0.260369
v 1.000000 1.655792 -0.049045
v 1.099065 1.655792 -0.049045
v 1.112282 1.647655 -0.272630
v 1.000000 1.647655 -0.272630
v 1.000000 1.750171 -0.313200
v 1.191654 1.750171 -0.313200
v 1.000000 0.474385 -1.311536
v 1.337336 0.474385 -1.311536
v 1.000000 0.243405 -1.396219
v 1.248859 0.243405 -1.396219
v 1.000000 0.495603 -1.396219
v 1.337336 0.495603 -1.396219
v 0.007140 -1.000000 0.267939
v 1.000000 -1.000000 0.267939
v 1.000000 -1.000000 1.000000
v 0.007140 -1.000000 1.000000
v 0.007140 1.264591 -0.366030
v -0.970406 0.408354 -0.366030
v -0.970406 0.408354 0.267939
v 0.007140 1.264591 0.267939
v 0.007140 -0.339196 1.000000
v 0.007140 -0.008794 1.000000
v -1.000000 -0.078378 0.267939
v 0.007140 -1.000000 -0.366030
v 1.000000 -1.000000 -0.366030
v -1.000000 -1.000000 -0.366030
v -1.000000 -1.000000 0.267939
v 1.000000 1.264591 0.267939
v 0.278148 1.035019 0.399919
v 0.728992 1.035019 0.399919
v -1.000000 -0.078378 -0.366030
v -0.970406 0.408354 -1.000000
v -1.000000 -0.078378 -1.000000
v 1.000000 1.769047 -0.366030
v 0.007140 1.769047 -0.366030
v 0.007140 1.542536 0.267939
v 1.000000 1.542536 0.267939
v 1.000000 1.264591 -1.000000
v 0.007140 1.264591 -1.000000
v 0.007140 1.542536 -1.000000
v 1.000000 1.542536 -1.000000
v 0.007140 -0.008794 -1.396219
v 0.007140 1.000000 -1.396219
v 1.000000 1.000000 -1.396219
v 1.000000 -0.008794 -1.396219
v 1.000000 -1.000000 -1.000000
v 0.007140 -1.000000 -1.000000
v 0.007140 -1.000000 -1.396219
v 1.000000 -1.000000 -1.396219
v 0.007140 -0.008794 -1.000000
v -1.000000 -1.000000 -1.000000
v 0.007140 0.676583 0.605982
v 0.007140 -0.339196 -1.000000
v 0.007140 -0.339196 -1.396219
v 1.000000 -0.339196 -1.396219
v 0.801758 -0.339196 1.000000
v 1.000000 -0.008794 1.000000
v 0.728992 0.259418 0.845807
v 0.278148 0.259418 0.845807
v 0.728992 0.759689 0.558204
v 0.278148 0.759689 0.558204
v 0.278148 0.534747 0.687522
v 0.728992 0.534747 0.687522
v 0.172196 1.598071 -0.844567
v 0.834944 1.598071 -0.844567
v 0.834944 1.713512 -0.521464
v 0.172196 1.713512 -0.521464
v 0.007140 -0.910000 0.267939
v 0.028429 -0.910000 0.934500
v 1.000000 -0.910000 0.936363
v 1.000000 -0.910000 0.267939
v 0.025531 0.632675 0.529605
v 0.031316 -0.028740 0.915636
v -0.925659 0.348981 0.229810
v 0.089106 1.227423 -0.366030
v 0.057651 1.223987 0.205494
v -0.918034 0.345265 -0.366030
v 0.007140 -0.910000 -0.366030
v 1.000000 -0.910000 -0.366030
v -0.936363 -0.910000 -0.366030
v -0.936942 -0.910000 0.235817
v 0.278148 0.748842 0.539337
v 0.278148 1.024172 0.381051
v -0.936008 0.353417 -0.943762
v 0.034274 -0.008794 -0.972866
v 0.066174 1.223655 -0.945789
v 1.000000 1.679047 -0.366030
v 1.000000 1.490699 0.194370
v 0.060919 1.500971 0.208952
v 0.064616 1.699792 -0.366030
v 1.000000 1.222155 -0.920635
v 1.000000 1.490699 -0.926431
v 0.060919 1.500971 -0.941013
v 1.000000 1.241379 0.180985
v 0.070777 -0.008794 -1.332581
v 1.000000 -0.008794 -1.306219
v 1.000000 0.957564 -1.316854
v 0.062468 0.966532 -1.333625
v 1.000000 -0.910000 -1.000000
v 1.000000 -0.910000 -1.332581
v 0.059101 -0.910000 -1.344257
v 0.034274 -0.918594 -0.972866
v -0.948039 -0.910000 -0.948039
v -0.929420 -0.070679 0.231812
v -0.924143 -0.073157 -0.366030
v 0.034274 -0.312061 -0.972866
v 0.066885 -0.309196 -1.336473
v 1.000000 -0.309196 -1.315006
v -0.940018 -0.067722 -0.945188
v 0.801758 -0.324670 0.920818
v 0.030353 -0.322493 0.921924
v 1.000000 -0.032006 0.913046
v 0.278148 0.523900 0.668654
v 0.728992 0.523900 0.668654
v 0.728992 1.024172 0.381051
v 0.728992 0.748842 0.539337
v 0.728992 0.248571 0.826939
v 0.203105 1.069742 0.282279
v 0.098364 0.656362 0.515355
v 0.172196 1.683847 -0.510865
v 0.172196 1.568406 -0.833968
v 0.118713 1.507385 -0.875195
v 0.923236 1.501219 -0.874275
v 0.834944 1.568406 -0.833968
v 0.834944 1.683847 -0.510865
v 0.923580 1.655765 -0.423976
v 0.932006 -0.669598 1.000000
v 0.932006 -0.617335 0.928590
v 0.795319 0.154216 0.803335
v 0.790844 0.549048 0.575489
v 0.776891 0.645250 0.533178
v 0.757995 1.081832 0.327999
v 0.217404 0.549276 0.575885
v 0.278148 0.248571 0.826939
v 0.217425 0.154708 0.804156
v 0.118092 1.664484 -0.428242
v 1.000000 -0.669598 -1.396219
v 1.000000 -0.609598 -1.323794
v -0.944028 -0.488861 -0.946613
v -0.930253 -0.491578 -0.366030
v -0.933181 -0.490340 0.233815
v 0.029391 -0.616247 0.928212
v 0.034274 -0.615327 -0.972866
v 0.062993 -0.609598 -1.340365
v -1.000000 -0.539189 -0.366030
v -1.000000 -0.539189 -1.000000
v 0.007140 -0.669598 1.000000
v -1.000000 -0.539189 0.267939
v 0.007140 -0.669598 -1.000000
v 0.007140 -0.669598 -1.396219
vt 0.798999 0.979391
vt 0.798999 0.961785
vt 0.721001 0.961785
vt 0.721001 0.979391
vt 0.978999 0.942177
vt 0.961001 0.942177
vt 0.961001 0.979391
vt 0.978999 0.979391
vt 0.558999 0.959783
vt 0.558999 0.942177
vt 0.481001 0.942177
vt 0.481001 0.959783
vt 0.998999 0.942177
vt 0.981001 0.942177
vt 0.981001 0.959783
vt 0.998999 0.959783
vt 0.398999 0.785315
vt 0.381001 0.785315
vt 0.381001 0.822528
vt 0.398999 0.822528
vt 0.378999 0.785315
vt 0.361001 0.785315
vt 0.361001 0.822528
vt 0.378999 0.822528
vt 0.938999 0.001001
vt 0.921001 0.001001
vt 0.921001 0.155862
vt 0.938999 0.155862
vt 0.358999 0.824530
vt 0.341001 0.824530
vt 0.341001 0.861744
vt 0.358999 0.861744
vt 0.638999 0.959783
vt 0.638999 0.942177
vt 0.561001 0.942177
vt 0.561001 0.959783
vt 0.978999 0.314727
vt 0.961001 0.314727
vt 0.961001 0.391156
vt 0.978999 0.391156
vt 0.338999 0.824530
vt 0.321001 0.824530
vt 0.321001 0.861744
vt 0.338999 0.861744
vt 0.398999 0.824530
vt 0.381001 0.824530
vt 0.381001 0.861744
vt 0.398999 0.861744
vt 0.718999 0.959783
vt 0.718999 0.942177
vt 0.641001 0.942177
vt 0.641001 0.959783
vt 0.978999 0.469587
vt 0.978999 0.393158
vt 0.961001 0.393158
vt 0.961001 0.469587
vt 0.378999 0.861744
vt 0.378999 0.824530
vt 0.361001 0.824530
vt 0.361001 0.861744
vt 0.721001 0.959783
vt 0.798999 0.959783
vt 0.798999 0.942177
vt 0.721001 0.942177
vt 0.838999 0.334334
vt 0.821001 0.334334
vt 0.821001 0.351940
vt 0.838999 0.351940
vt 0.358999 0.665666
vt 0.358999 0.628452
vt 0.341001 0.628452
vt 0.341001 0.665666
vt 0.338999 0.665666
vt 0.338999 0.628452
vt 0.321001 0.628452
vt 0.321001 0.665666
vt 0.978999 0.312725
vt 0.978999 0.157864
vt 0.961001 0.157864
vt 0.961001 0.312725
vt 0.398999 0.665666
vt 0.398999 0.628452
vt 0.381001 0.628452
vt 0.381001 0.665666
vt 0.801001 0.959783
vt 0.878999 0.959783
vt 0.878999 0.942177
vt 0.801001 0.942177
vt 0.978999 0.548019
vt 0.978999 0.471589
vt 0.961001 0.471589
vt 0.961001 0.548019
vt 0.378999 0.665666
vt 0.378999 0.628452
vt 0.361001 0.628452
vt 0.361001 0.665666
vt 0.358999 0.704881
vt 0.358999 0.667668
vt 0.341001 0.667668
vt 0.341001 0.704881
vt 0.881001 0.959783
vt 0.958999 0.959783
vt 0.958999 0.942177
vt 0.881001 0.942177
vt 0.338999 0.704881
vt 0.338999 0.667668
vt 0.321001 0.667668
vt 0.321001 0.704881
vt 0.978999 0.155862
vt 0.978999 0.079432
vt 0.941001 0.079432
vt 0.941001 0.155862
vt 0.398999 0.704881
vt 0.398999 0.667668
vt 0.381001 0.667668
vt 0.381001 0.704881
vt 0.798999 0.589236
vt 0.761001 0.589236
vt 0.761001 0.626450
vt 0.798999 0.626450
vt 0.081001 0.979391
vt 0.158999 0.979391
vt 0.158999 0.961785
vt 0.081001 0.961785
vt 0.378999 0.667668
vt 0.361001 0.667668
vt 0.361001 0.704881
vt 0.378999 0.704881
vt 0.758999 0.589236
vt 0.721001 0.589236
vt 0.721001 0.626450
vt 0.758999 0.626450
vt 0.798999 0.550021
vt 0.761001 0.550021
vt 0.761001 0.587234
vt 0.798999 0.587234
vt 0.598999 0.822528
vt 0.598999 0.785315
vt 0.581001 0.785315
vt 0.581001 0.822528
vt 0.758999 0.548019
vt 0.758999 0.393158
vt 0.721001 0.393158
vt 0.721001 0.548019
vt 0.161001 0.979391
vt 0.238999 0.979391
vt 0.238999 0.961785
vt 0.161001 0.961785
vt 0.758999 0.550021
vt 0.721001 0.550021
vt 0.721001 0.587234
vt 0.758999 0.587234
vt 0.838999 0.432374
vt 0.801001 0.432374
vt 0.801001 0.469587
vt 0.838999 0.469587
vt 0.958999 0.312725
vt 0.958999 0.236295
vt 0.921001 0.236295
vt 0.921001 0.312725
vt 0.401001 0.744097
vt 0.558999 0.744097
vt 0.558999 0.706883
vt 0.401001 0.706883
vt 0.978999 0.626450
vt 0.978999 0.550021
vt 0.961001 0.550021
vt 0.961001 0.626450
vt 0.798999 0.432374
vt 0.761001 0.432374
vt 0.761001 0.469587
vt 0.798999 0.469587
vt 0.561001 0.940175
vt 0.638999 0.940175
vt 0.638999 0.902962
vt 0.561001 0.902962
vt 0.958999 0.626450
vt 0.958999 0.550021
vt 0.921001 0.550021
vt 0.921001 0.626450
vt 0.881001 0.940175
vt 0.958999 0.940175
vt 0.958999 0.902962
vt 0.881001 0.902962
vt 0.958999 0.391156
vt 0.958999 0.314727
vt 0.921001 0.314727
vt 0.921001 0.391156
vt 0.241001 0.979391
vt 0.318999 0.979391
vt 0.318999 0.961785
vt 0.241001 0.961785
vt 0.838999 0.393158
vt 0.801001 0.393158
vt 0.801001 0.430372
vt 0.838999 0.430372
vt 0.578999 0.822528
vt 0.578999 0.785315
vt 0.561001 0.785315
vt 0.561001 0.822528
vt 0.638999 0.785315
vt 0.621001 0.785315
vt 0.621001 0.822528
vt 0.638999 0.822528
vt 0.978999 0.077430
vt 0.978999 0.001001
vt 0.941001 0.001001
vt 0.941001 0.077430
vt 0.618999 0.822528
vt 0.618999 0.785315
vt 0.601001 0.785315
vt 0.601001 0.822528
vt 0.798999 0.393158
vt 0.761001 0.393158
vt 0.761001 0.430372
vt 0.798999 0.430372
vt 0.818999 0.334334
vt 0.801001 0.334334
vt 0.801001 0.351940
vt 0.818999 0.351940
vt 0.598999 0.824530
vt 0.581001 0.824530
vt 0.581001 0.861744
vt 0.598999 0.861744
vt 0.578999 0.861744
vt 0.578999 0.824530
vt 0.561001 0.824530
vt 0.561001 0.861744
vt 0.638999 0.824530
vt 0.621001 0.824530
vt 0.621001 0.861744
vt 0.638999 0.861744
vt 0.078999 0.746099
vt 0.041001 0.746099
vt 0.041001 0.783313
vt 0.078999 0.783313
vt 0.618999 0.861744
vt 0.618999 0.824530
vt 0.601001 0.824530
vt 0.601001 0.861744
vt 0.438999 0.665666
vt 0.438999 0.628452
vt 0.421001 0.628452
vt 0.421001 0.665666
vt 0.418999 0.665666
vt 0.418999 0.628452
vt 0.401001 0.628452
vt 0.401001 0.665666
vt 0.038999 0.746099
vt 0.001001 0.746099
vt 0.001001 0.783313
vt 0.038999 0.783313
vt 0.478999 0.665666
vt 0.478999 0.628452
vt 0.461001 0.628452
vt 0.461001 0.665666
vt 0.078999 0.706883
vt 0.041001 0.706883
vt 0.041001 0.744097
vt 0.078999 0.744097
vt 0.458999 0.665666
vt 0.458999 0.628452
vt 0.441001 0.628452
vt 0.441001 0.665666
vt 0.438999 0.704881
vt 0.438999 0.667668
vt 0.421001 0.667668
vt 0.421001 0.704881
vt 0.418999 0.704881
vt 0.418999 0.667668
vt 0.401001 0.667668
vt 0.401001 0.704881
vt 0.478999 0.704881
vt 0.478999 0.667668
vt 0.461001 0.667668
vt 0.461001 0.704881
vt 0.458999 0.704881
vt 0.458999 0.667668
vt 0.441001 0.667668
vt 0.441001 0.704881
vt 0.518999 0.665666
vt 0.518999 0.628452
vt 0.501001 0.628452
vt 0.501001 0.665666
vt 0.498999 0.665666
vt 0.498999 0.628452
vt 0.481001 0.628452
vt 0.481001 0.665666
vt 0.558999 0.665666
vt 0.558999 0.628452
vt 0.541001 0.628452
vt 0.541001 0.665666
vt 0.538999 0.628452
vt 0.521001 0.628452
vt 0.521001 0.665666
vt 0.538999 0.665666
vt 0.518999 0.667668
vt 0.501001 0.667668
vt 0.501001 0.704881
vt 0.518999 0.704881
vt 0.498999 0.667668
vt 0.481001 0.667668
vt 0.481001 0.704881
vt 0.498999 0.704881
vt 0.558999 0.667668
vt 0.541001 0.667668
vt 0.541001 0.704881
vt 0.558999 0.704881
vt 0.538999 0.667668
vt 0.521001 0.667668
vt 0.521001 0.704881
vt 0.538999 0.704881
vt 0.678999 0.471589
vt 0.661001 0.471589
vt 0.661001 0.508803
vt 0.678999 0.508803
vt 0.838999 0.314727
vt 0.821001 0.314727
vt 0.821001 0.332332
vt 0.838999 0.332332
vt 0.818999 0.314727
vt 0.801001 0.314727
vt 0.801001 0.332332
vt 0.818999 0.332332
vt 0.878999 0.334334
vt 0.861001 0.334334
vt 0.861001 0.351940
vt 0.878999 0.351940
vt 0.858999 0.334334
vt 0.841001 0.334334
vt 0.841001 0.351940
vt 0.858999 0.351940
vt 0.878999 0.314727
vt 0.861001 0.314727
vt 0.861001 0.332332
vt 0.878999 0.332332
vt 0.858999 0.314727
vt 0.841001 0.314727
vt 0.841001 0.332332
vt 0.858999 0.332332
vt 0.838999 0.373550
vt 0.821001 0.373550
vt 0.821001 0.391156
vt 0.838999 0.391156
vt 0.818999 0.373550
vt 0.801001 0.373550
vt 0.801001 0.391156
vt 0.818999 0.391156
vt 0.838999 0.353942
vt 0.821001 0.353942
vt 0.821001 0.371548
vt 0.838999 0.371548
vt 0.818999 0.353942
vt 0.801001 0.353942
vt 0.801001 0.371548
vt 0.818999 0.371548
vt 0.878999 0.373550
vt 0.861001 0.373550
vt 0.861001 0.391156
vt 0.878999 0.391156
vt 0.858999 0.373550
vt 0.841001 0.373550
vt 0.841001 0.391156
vt 0.858999 0.391156
vt 0.878999 0.353942
vt 0.861001 0.353942
vt 0.861001 0.371548
vt 0.878999 0.371548
vt 0.858999 0.353942
vt 0.841001 0.353942
vt 0.841001 0.371548
vt 0.858999 0.371548
vt 0.358999 0.804923
vt 0.341001 0.804923
vt 0.341001 0.822528
vt 0.358999 0.822528
vt 0.658999 0.471589
vt 0.641001 0.471589
vt 0.641001 0.508803
vt 0.658999 0.508803
vt 0.338999 0.804923
vt 0.321001 0.804923
vt 0.321001 0.822528
vt 0.338999 0.822528
vt 0.358999 0.785315
vt 0.341001 0.785315
vt 0.341001 0.802921
vt 0.358999 0.802921
vt 0.338999 0.785315
vt 0.321001 0.785315
vt 0.321001 0.802921
vt 0.338999 0.802921
vt 0.038999 0.706883
vt 0.001001 0.706883
vt 0.001001 0.744097
vt 0.038999 0.744097
vt 0.798999 0.040217
vt 0.761001 0.040217
vt 0.761001 0.077430
vt 0.798999 0.077430
vt 0.758999 0.040217
vt 0.721001 0.040217
vt 0.721001 0.077430
vt 0.758999 0.077430
vt 0.798999 0.001001
vt 0.761001 0.001001
vt 0.761001 0.038215
vt 0.798999 0.038215
vt 0.758999 0.001001
vt 0.721001 0.001001
vt 0.721001 0.038215
vt 0.758999 0.038215
vt 0.718999 0.667668
vt 0.681001 0.667668
vt 0.681001 0.704881
vt 0.718999 0.704881
vt 0.718999 0.508803
vt 0.718999 0.471589
vt 0.701001 0.471589
vt 0.701001 0.508803
vt 0.698999 0.508803
vt 0.698999 0.471589
vt 0.681001 0.471589
vt 0.681001 0.508803
vt 0.678999 0.548019
vt 0.678999 0.510805
vt 0.661001 0.510805
vt 0.661001 0.548019
vt 0.658999 0.510805
vt 0.641001 0.510805
vt 0.641001 0.548019
vt 0.658999 0.548019
vt 0.718999 0.510805
vt 0.701001 0.510805
vt 0.701001 0.548019
vt 0.718999 0.548019
vt 0.698999 0.510805
vt 0.681001 0.510805
vt 0.681001 0.548019
vt 0.698999 0.548019
vt 0.161001 0.704881
vt 0.318999 0.704881
vt 0.318999 0.628452
vt 0.161001 0.628452
vt 0.718999 0.469587
vt 0.718999 0.314727
vt 0.641001 0.314727
vt 0.641001 0.469587
vt 0.478999 0.234293
vt 0.478999 0.157864
vt 0.321001 0.157864
vt 0.321001 0.234293
vt 0.398999 0.391156
vt 0.398999 0.236295
vt 0.321001 0.236295
vt 0.321001 0.391156
vt 0.161001 0.469587
vt 0.318999 0.469587
vt 0.318999 0.393158
vt 0.161001 0.393158
vt 0.718999 0.706883
vt 0.641001 0.706883
vt 0.641001 0.783313
vt 0.718999 0.783313
vt 0.002002 0.391156
vt 0.158999 0.391156
vt 0.158999 0.315728
vt 0.798999 0.706883
vt 0.721001 0.706883
vt 0.721001 0.783313
vt 0.798999 0.783313
vt 0.478999 0.155862
vt 0.478999 0.001001
vt 0.401001 0.001001
vt 0.401001 0.155862
vt 0.161001 0.783313
vt 0.318999 0.783313
vt 0.318999 0.746099
vt 0.161001 0.746099
vt 0.798999 0.391156
vt 0.798999 0.236295
vt 0.761001 0.236295
vt 0.761001 0.391156
vt 0.478999 0.746099
vt 0.401001 0.746099
vt 0.401001 0.822528
vt 0.478999 0.822528
vt 0.318999 0.157864
vt 0.161001 0.157864
vt 0.161001 0.312725
vt 0.318999 0.312725
vt 0.321001 0.469587
vt 0.478999 0.469587
vt 0.478999 0.393158
vt 0.321001 0.393158
vt 0.478999 0.391156
vt 0.478999 0.236295
vt 0.401001 0.236295
vt 0.401001 0.391156
vt 0.001001 0.548019
vt 0.158999 0.548019
vt 0.158999 0.471589
vt 0.001001 0.471589
vt 0.158999 0.706883
vt 0.081001 0.706883
vt 0.081001 0.783313
vt 0.158999 0.783313
vt 0.558999 0.469587
vt 0.558999 0.314727
vt 0.481001 0.314727
vt 0.481001 0.469587
vt 0.321001 0.548019
vt 0.478999 0.548019
vt 0.478999 0.471589
vt 0.321001 0.471589
vt 0.162002 0.155862
vt 0.318999 0.002002
vt 0.318999 0.155862
vt 0.158999 0.312725
vt 0.158999 0.158865
vt 0.002002 0.312725
vt 0.958999 0.157864
vt 0.921001 0.157864
vt 0.921001 0.234293
vt 0.958999 0.234293
vt 0.798999 0.822528
vt 0.798999 0.785315
vt 0.641001 0.785315
vt 0.641001 0.822528
vt 0.638999 0.155862
vt 0.638999 0.001001
vt 0.561001 0.001001
vt 0.561001 0.155862
vt 0.158999 0.861744
vt 0.158999 0.824530
vt 0.001001 0.824530
vt 0.001001 0.861744
vt 0.482002 0.155862
vt 0.558999 0.002002
vt 0.558999 0.155862
vt 0.878999 0.706883
vt 0.801001 0.706883
vt 0.801001 0.783313
vt 0.878999 0.783313
vt 0.958999 0.469587
vt 0.958999 0.393158
vt 0.921001 0.393158
vt 0.921001 0.469587
vt 0.318999 0.824530
vt 0.318999 0.861744
vt 0.161001 0.855035
vt 0.161001 0.846989
vt 0.161001 0.840415
vt 0.161001 0.832369
vt 0.958999 0.471589
vt 0.921001 0.471589
vt 0.921001 0.548019
vt 0.958999 0.548019
vt 0.878999 0.785315
vt 0.801001 0.785315
vt 0.801001 0.861744
vt 0.878999 0.861744
vt 0.618999 0.668669
vt 0.602002 0.704881
vt 0.618999 0.704881
vt 0.878999 0.940175
vt 0.878999 0.902962
vt 0.801001 0.902962
vt 0.801001 0.940175
vt 0.878999 0.155862
vt 0.878999 0.001001
vt 0.841001 0.001001
vt 0.841001 0.155862
vt 0.881001 0.900960
vt 0.958999 0.900960
vt 0.958999 0.863746
vt 0.881001 0.863746
vt 0.958999 0.704881
vt 0.958999 0.628452
vt 0.921001 0.628452
vt 0.921001 0.704881
vt 0.401001 0.861744
vt 0.558999 0.861744
vt 0.558999 0.824530
vt 0.401001 0.824530
vt 0.638999 0.157864
vt 0.561001 0.157864
vt 0.561001 0.312725
vt 0.638999 0.312725
vt 0.001001 0.157864
vt 0.157998 0.157864
vt 0.001001 0.311724
vt 0.158999 0.626450
vt 0.158999 0.550021
vt 0.001001 0.550021
vt 0.001001 0.626450
vt 0.638999 0.314727
vt 0.561001 0.314727
vt 0.561001 0.469587
vt 0.638999 0.469587
vt 0.318999 0.626450
vt 0.318999 0.550021
vt 0.161001 0.550021
vt 0.161001 0.626450
vt 0.678999 0.587234
vt 0.678999 0.550021
vt 0.661001 0.550021
vt 0.661001 0.587234
vt 0.157998 0.314727
vt 0.001001 0.390155
vt 0.001001 0.314727
vt 0.317998 0.001001
vt 0.161001 0.001001
vt 0.161001 0.154861
vt 0.558999 0.471589
vt 0.481001 0.471589
vt 0.481001 0.626450
vt 0.558999 0.626450
vt 0.318999 0.900960
vt 0.318999 0.863746
vt 0.161001 0.863746
vt 0.161001 0.900960
vt 0.918999 0.157864
vt 0.881001 0.157864
vt 0.881001 0.312725
vt 0.918999 0.312725
vt 0.078999 0.979391
vt 0.078999 0.942177
vt 0.001001 0.942177
vt 0.001001 0.979391
vt 0.158999 0.001001
vt 0.001001 0.001001
vt 0.001001 0.155862
vt 0.158999 0.155862
vt 0.918999 0.471589
vt 0.881001 0.471589
vt 0.881001 0.626450
vt 0.918999 0.626450
vt 0.478999 0.626450
vt 0.478999 0.550021
vt 0.321001 0.550021
vt 0.321001 0.626450
vt 0.638999 0.471589
vt 0.561001 0.471589
vt 0.561001 0.626450
vt 0.638999 0.626450
vt 0.878999 0.900960
vt 0.878999 0.863746
vt 0.801001 0.863746
vt 0.801001 0.900960
vt 0.718999 0.001001
vt 0.641001 0.001001
vt 0.641001 0.155862
vt 0.718999 0.155862
vt 0.158999 0.704881
vt 0.158999 0.628452
vt 0.001001 0.628452
vt 0.001001 0.704881
vt 0.718999 0.157864
vt 0.641001 0.157864
vt 0.641001 0.312725
vt 0.718999 0.312725
vt 0.958999 0.785315
vt 0.881001 0.785315
vt 0.881001 0.861744
vt 0.958999 0.861744
vt 0.678999 0.667668
vt 0.641001 0.667668
vt 0.641001 0.704881
vt 0.678999 0.704881
vt 0.001001 0.940175
vt 0.158999 0.940175
vt 0.158999 0.902962
vt 0.001001 0.902962
vt 0.758999 0.234293
vt 0.758999 0.079432
vt 0.721001 0.079432
vt 0.721001 0.234293
vt 0.161001 0.744097
vt 0.318999 0.744097
vt 0.318999 0.706883
vt 0.161001 0.706883
vt 0.758999 0.391156
vt 0.758999 0.236295
vt 0.721001 0.236295
vt 0.721001 0.391156
vt 0.398999 0.706883
vt 0.321001 0.706883
vt 0.321001 0.783313
vt 0.398999 0.783313
vt 0.321001 0.979391
vt 0.398999 0.979391
vt 0.398999 0.961785
vt 0.321001 0.961785
vt 0.978999 0.704881
vt 0.978999 0.628452
vt 0.961001 0.628452
vt 0.961001 0.704881
vt 0.401001 0.979391
vt 0.478999 0.979391
vt 0.478999 0.961785
vt 0.401001 0.961785
vt 0.658999 0.587234
vt 0.658999 0.550021
vt 0.641001 0.550021
vt 0.641001 0.587234
vt 0.557998 0.001001
vt 0.481001 0.001001
vt 0.481001 0.154861
vt 0.978999 0.783313
vt 0.978999 0.706883
vt 0.961001 0.706883
vt 0.961001 0.783313
vt 0.718999 0.587234
vt 0.718999 0.550021
vt 0.701001 0.550021
vt 0.701001 0.587234
vt 0.318999 0.920568
vt 0.318999 0.902962
vt 0.161001 0.902962
vt 0.161001 0.920568
vt 0.698999 0.587234
vt 0.698999 0.550021
vt 0.681001 0.550021
vt 0.681001 0.587234
vt 0.978999 0.861744
vt 0.978999 0.785315
vt 0.961001 0.785315
vt 0.961001 0.861744
vt 0.321001 0.920568
vt 0.478999 0.920568
vt 0.478999 0.902962
vt 0.321001 0.902962
vt 0.978999 0.940175
vt 0.978999 0.863746
vt 0.961001 0.863746
vt 0.961001 0.940175
vt 0.481001 0.979391
vt 0.558999 0.979391
vt 0.558999 0.961785
vt 0.481001 0.961785
vt 0.678999 0.626450
vt 0.678999 0.589236
vt 0.661001 0.589236
vt 0.661001 0.626450
vt 0.658999 0.626450
vt 0.658999 0.589236
vt 0.641001 0.589236
vt 0.641001 0.626450
vt 0.718999 0.626450
vt 0.718999 0.589236
vt 0.701001 0.589236
vt 0.701001 0.626450
vt 0.698999 0.626450
vt 0.698999 0.589236
vt 0.681001 0.589236
vt 0.681001 0.626450
vt 0.998999 0.077430
vt 0.998999 0.001001
vt 0.981001 0.001001
vt 0.981001 0.077430
vt 0.561001 0.979391
vt 0.638999 0.979391
vt 0.638999 0.961785
vt 0.561001 0.961785
vt 0.998999 0.079432
vt 0.981001 0.079432
vt 0.981001 0.155862
vt 0.998999 0.155862
vt 0.321001 0.940175
vt 0.478999 0.940175
vt 0.478999 0.922570
vt 0.321001 0.922570
vt 0.598999 0.665666
vt 0.598999 0.628452
vt 0.581001 0.628452
vt 0.581001 0.665666
vt 0.798999 0.234293
vt 0.767279 0.211538
vt 0.766592 0.163478
vt 0.764319 0.152440
vt 0.761001 0.101673
vt 0.798999 0.079432
vt 0.558999 0.940175
vt 0.558999 0.902962
vt 0.481001 0.902962
vt 0.481001 0.940175
vt 0.998999 0.157864
vt 0.981001 0.157864
vt 0.981001 0.234293
vt 0.998999 0.234293
vt 0.617998 0.667668
vt 0.601001 0.667668
vt 0.601001 0.703880
vt 0.641001 0.979391
vt 0.718999 0.979391
vt 0.718999 0.961785
vt 0.641001 0.961785
vt 0.578999 0.665666
vt 0.578999 0.628452
vt 0.561001 0.628452
vt 0.561001 0.665666
vt 0.838999 0.001001
vt 0.801001 0.001001
vt 0.801001 0.155862
vt 0.838999 0.155862
vt 0.241001 0.959783
vt 0.318999 0.959783
vt 0.318999 0.922570
vt 0.241001 0.922570
vt 0.998999 0.236295
vt 0.981001 0.236295
vt 0.981001 0.312725
vt 0.998999 0.312725
vt 0.081001 0.959783
vt 0.158999 0.959783
vt 0.158999 0.942177
vt 0.081001 0.942177
vt 0.998999 0.391156
vt 0.998999 0.314727
vt 0.981001 0.314727
vt 0.981001 0.391156
vt 0.478999 0.959783
vt 0.478999 0.942177
vt 0.321001 0.942177
vt 0.321001 0.959783
vt 0.638999 0.665666
vt 0.638999 0.628452
vt 0.621001 0.628452
vt 0.621001 0.665666
vt 0.618999 0.665666
vt 0.618999 0.628452
vt 0.601001 0.628452
vt 0.601001 0.665666
vt 0.598999 0.704881
vt 0.598999 0.667668
vt 0.581001 0.667668
vt 0.581001 0.704881
vt 0.578999 0.704881
vt 0.578999 0.667668
vt 0.561001 0.667668
vt 0.561001 0.704881
vt 0.878999 0.550021
vt 0.801001 0.550021
vt 0.801001 0.626450
vt 0.878999 0.626450
vt 0.878999 0.628452
vt 0.801001 0.628452
vt 0.801001 0.704881
vt 0.878999 0.704881
vt 0.878999 0.312725
vt 0.878999 0.157864
vt 0.841001 0.157864
vt 0.841001 0.312725
vt 0.641001 0.861744
vt 0.798999 0.861744
vt 0.798999 0.824530
vt 0.641001 0.824530
vt 0.878999 0.548019
vt 0.878999 0.393158
vt 0.841001 0.393158
vt 0.841001 0.548019
vt 0.001001 0.900960
vt 0.158999 0.900960
vt 0.158999 0.863746
vt 0.001001 0.863746
vt 0.918999 0.155862
vt 0.918999 0.001001
vt 0.881001 0.001001
vt 0.881001 0.155862
vt 0.321001 0.900960
vt 0.478999 0.900960
vt 0.478999 0.863746
vt 0.321001 0.863746
vt 0.918999 0.783313
vt 0.918999 0.628452
vt 0.881001 0.628452
vt 0.881001 0.783313
vt 0.481001 0.900960
vt 0.638999 0.900960
vt 0.638999 0.863746
vt 0.481001 0.863746
vt 0.718999 0.628452
vt 0.681001 0.628452
vt 0.681001 0.665666
vt 0.718999 0.665666
vt 0.678999 0.628452
vt 0.641001 0.628452
vt 0.641001 0.665666
vt 0.678999 0.665666
vt 0.718999 0.863746
vt 0.641001 0.863746
vt 0.641001 0.940175
vt 0.718999 0.940175
vt 0.798999 0.863746
vt 0.721001 0.863746
vt 0.721001 0.940175
vt 0.798999 0.940175
vt 0.558999 0.746099
vt 0.481001 0.746099
vt 0.481001 0.822528
vt 0.558999 0.822528
vt 0.838999 0.471589
vt 0.761001 0.471589
vt 0.761001 0.548019
vt 0.838999 0.548019
vt 0.558999 0.157864
vt 0.481001 0.157864
vt 0.481001 0.312725
vt 0.558999 0.312725
vt 0.318999 0.391156
vt 0.318999 0.314727
vt 0.161001 0.314727
vt 0.161001 0.391156
vt 0.918999 0.314727
vt 0.881001 0.314727
vt 0.881001 0.469587
vt 0.918999 0.469587
vt 0.318999 0.822528
vt 0.318999 0.785315
vt 0.161001 0.785315
vt 0.161001 0.822528
vt 0.398999 0.001001
vt 0.321001 0.001001
vt 0.321001 0.155862
vt 0.398999 0.155862
vt 0.158999 0.469587
vt 0.158999 0.393158
vt 0.001001 0.393158
vt 0.001001 0.469587
vt 0.838999 0.157864
vt 0.801001 0.157864
vt 0.801001 0.312725
vt 0.838999 0.312725
vt 0.158999 0.822528
vt 0.158999 0.785315
vt 0.001001 0.785315
vt 0.001001 0.822528
vt 0.958999 0.706883
vt 0.921001 0.706883
vt 0.921001 0.783313
vt 0.958999 0.783313
vt 0.238999 0.959783
vt 0.238999 0.922570
vt 0.161001 0.922570
vt 0.161001 0.959783
vt 0.638999 0.706883
vt 0.561001 0.706883
vt 0.561001 0.783313
vt 0.638999 0.783313
vt 0.798999 0.628452
vt 0.721001 0.628452
vt 0.721001 0.704881
vt 0.798999 0.704881
vt 0.998999 0.469587
vt 0.998999 0.393158
vt 0.981001 0.393158
vt 0.981001 0.469587
vt 0.801001 0.979391
vt 0.878999 0.979391
vt 0.878999 0.961785
vt 0.801001 0.961785
vt 0.998999 0.548019
vt 0.998999 0.471589
vt 0.981001 0.471589
vt 0.981001 0.548019
vt 0.881001 0.979391
vt 0.958999 0.979391
vt 0.958999 0.961785
vt 0.881001 0.961785
vt 0.998999 0.626450
vt 0.998999 0.550021
vt 0.981001 0.550021
vt 0.981001 0.626450
vt 0.001001 0.998999
vt 0.078999 0.998999
vt 0.078999 0.981393
vt 0.001001 0.981393
vt 0.998999 0.704881
vt 0.998999 0.628452
vt 0.981001 0.628452
vt 0.981001 0.704881
vt 0.081001 0.998999
vt 0.158999 0.998999
vt 0.158999 0.981393
vt 0.081001 0.981393
vt 0.998999 0.783313
vt 0.998999 0.706883
vt 0.981001 0.706883
vt 0.981001 0.783313
vt 0.161001 0.998999
vt 0.238999 0.998999
vt 0.238999 0.981393
vt 0.161001 0.981393
vt 0.998999 0.861744
vt 0.998999 0.785315
vt 0.981001 0.785315
vt 0.981001 0.861744
vt 0.241001 0.998999
vt 0.318999 0.998999
vt 0.318999 0.981393
vt 0.241001 0.981393
vt 0.998999 0.940175
vt 0.998999 0.863746
vt 0.981001 0.863746
vt 0.981001 0.940175
vt 0.638999 0.704881
vt 0.638999 0.667668
vt 0.621001 0.667668
vt 0.621001 0.704881
vt 0.318999 0.548019
vt 0.318999 0.471589
vt 0.161001 0.471589
vt 0.161001 0.548019
vn -1.0000 0.0000 0.0000
vn 1.0000 0.0000 0.0000
vn 0.9768 -0.2069 0.0552
vn 0.9879 -0.1319 -0.0813
vn 0.9883 -0.1317 0.0772
vn 0.9052 0.3747 0.2003
vn 0.9510 -0.2808 -0.1292
vn 0.8391 -0.3268 -0.4348
vn 0.9902 -0.0643 -0.1240
vn 0.0357 -0.0492 -0.9982
vn 0.0000 -1.0000 -0.0000
vn 0.0000 0.0216 0.9998
vn 0.0000 0.0000 -1.0000
vn 0.0000 -0.9479 0.3186
vn 0.0000 0.9417 0.3365
vn 0.0000 0.0536 -0.9986
vn 0.0047 -0.3253 0.9456
vn 0.0000 -0.0292 0.9996
vn 0.0000 0.9417 -0.3365
vn 0.0000 -0.0000 1.0000
vn 0.0000 1.0000 0.0000
vn 0.0000 -0.8316 0.5553
vn 0.0000 -0.4984 -0.8669
vn 0.0000 0.8316 -0.5553
vn 0.0000 0.0110 0.9999
vn 0.0000 0.4984 0.8669
vn 0.0000 -0.9479 -0.3186
vn -0.0378 0.0213 0.9991
vn -0.0059 0.4085 -0.9127
vn 0.0872 -0.9799 0.1797
vn -0.0143 0.6324 0.7745
vn 0.9803 0.1849 -0.0694
vn 0.9164 -0.3867 0.1032
vn 0.9864 0.1589 -0.0424
vn 0.9126 0.3950 -0.1054
vn 0.9845 -0.1693 0.0452
vn 0.5487 0.1535 -0.8218
vn 0.8628 -0.1731 0.4750
vn 0.8543 0.2967 -0.4268
vn 0.5431 -0.0901 0.8348
vn 0.9641 0.2652 0.0159
vn 0.9394 -0.3370 -0.0623
vn 0.8498 0.5023 0.1598
vn -0.6589 0.7522 0.0000
vn -0.5888 0.0213 0.8080
vn -0.9982 0.0607 0.0000
vn -0.4001 0.4568 0.7945
vn 0.3888 -0.4603 -0.7981
vn 0.3890 -0.4618 -0.7971
vn 0.3889 -0.4592 -0.7987
vn 0.6618 -0.7494 0.0223
vn 0.0000 1.0000 -0.0035
vn -0.0022 1.0000 -0.0035
vn 0.0022 1.0000 -0.0036
vn 0.0216 -0.0225 0.9995
vn -0.0182 -0.9463 -0.3228
vn -0.0212 0.0017 0.9998
vn -0.0209 0.0321 -0.9993
vn 0.9990 0.0281 0.0356
vn -0.0231 0.0059 0.9997
vn -0.0044 0.9999 0.0121
vn 0.9988 -0.0112 0.0477
vn -0.0171 -0.8324 0.5539
vn 0.9988 0.0398 -0.0300
vn 0.0044 1.0000 -0.0072
vn 0.0042 1.0000 -0.0072
vn -0.0045 1.0000 -0.0070
vn 0.6570 -0.7534 -0.0261
vn 0.9999 -0.0118 0.0089
vn 0.9999 -0.0117 0.0109
vn 0.9960 -0.0070 0.0893
vn 0.9954 -0.0070 0.0951
vn -0.0230 -0.0209 0.9995
vn -0.0257 -0.0209 0.9995
vn 0.0276 -0.0021 0.9996
vn 0.0278 -0.0021 0.9996
vn 0.0285 -0.0021 0.9996
vn -0.0014 -0.0236 -0.9997
vn -0.0013 -0.0236 -0.9997
vn -0.0022 -0.0232 -0.9997
vn 0.5805 -0.0133 -0.8142
vn 0.5825 -0.0133 -0.8127
vn 0.5802 -0.0133 -0.8144
vn 0.9995 -0.0120 -0.0275
vn 0.9995 -0.0120 -0.0294
vn 0.0000 -0.8669 0.4984
vn 0.0000 0.8669 -0.4984
vn 0.3887 -0.4590 -0.7989
vn -0.0366 -0.4808 -0.8760
vn -0.0106 -0.9900 0.1404
vn 0.0666 -0.9449 0.3205
vn 0.9521 0.2106 0.2218
vn -0.0627 -0.4802 -0.8749
vn 0.0230 -0.5852 -0.8106
vn 0.0084 -0.4470 -0.8945
vn -0.0081 -0.4987 -0.8667
vn -0.0075 -0.4984 -0.8669
vn -0.0096 -0.4995 -0.8663
vn -0.0031 -0.5136 -0.8580
vn -0.0160 -0.5028 -0.8642
vn -0.2479 -0.9147 0.3193
vn 0.0000 -0.3365 -0.9417
vn -0.0163 -0.8975 0.4407
vn 0.8435 -0.5364 0.0280
vn 0.9085 0.3820 0.1694
vn 0.9997 -0.0120 -0.0219
vn 0.9996 -0.0120 -0.0238
vn 0.5851 -0.0133 -0.8109
vn 0.5838 -0.0133 -0.8118
vn 0.5839 -0.0133 -0.8117
vn 0.0012 -0.0238 -0.9997
vn 0.0004 -0.0240 -0.9997
vn -0.0003 -0.0240 -0.9997
vn 0.0259 -0.0021 0.9997
vn 0.0265 -0.0021 0.9996
vn 0.0266 -0.0021 0.9996
vn -0.0150 -0.0210 0.9997
vn -0.0177 -0.0210 0.9996
vn 0.9974 -0.0069 0.0721
vn 0.9969 -0.0069 0.0778
vn 0.9999 -0.0118 0.0029
vn 0.9999 -0.0118 0.0049
vn -0.5880 -0.0000 0.8089
vn -0.5114 -0.8112 0.2834
vn -0.0028 -0.5372 0.8435
vn 0.6399 -0.7242 0.2568
vn -0.0049 -0.9632 -0.2686
vn 0.0000 0.3365 0.9417
vn -0.6930 -0.3423 -0.6345
vn 0.0358 -0.8213 -0.5693
vn 0.0170 0.1407 -0.9899
vn 0.4497 -0.4920 -0.7455
vn -0.7271 -0.3464 -0.5928
vn -0.0003 -0.9650 -0.2622
vn -0.0007 0.2393 -0.9710
vn 0.7417 -0.3352 -0.5810
usemtl Material.001
s 1
f 1/1/1 2/2/1 3/3/1 4/4/1
f 5/5/1 6/6/1 7/7/1 8/8/1
f 9/9/1 10/10/1 11/11/1 12/12/1
f 13/13/1 14/14/1 15/15/1 16/16/1
f 17/17/1 18/18/1 19/19/1 20/20/1
f 16/21/1 15/22/1 21/23/1 22/24/1
f 23/25/1 24/26/1 25/27/1 26/28/1
f 4/29/1 3/30/1 24/31/1 23/32/1
f 27/33/1 28/34/1 18/35/1 17/36/1
f 12/37/1 11/38/1 2/39/1 1/40/1
f 29/41/1 30/42/1 28/43/1 27/44/1
f 31/45/1 32/46/1 10/47/1 9/48/1
f 20/49/1 19/50/1 33/51/1 34/52/1
f 35/53/2 36/54/2 37/55/2 38/56/2
f 39/57/3 40/58/3 41/59/3 42/60/3
f 43/61/2 44/62/2 45/63/2 46/64/2
f 47/65/2 48/66/2 49/67/2 50/68/2
f 51/69/4 52/70/4 53/71/4 54/72/4
f 48/73/2 55/74/2 56/75/2 49/76/2
f 57/77/5 58/78/5 59/79/5 60/80/5
f 36/81/2 57/82/2 60/83/2 37/84/2
f 61/85/6 51/86/6 54/87/6 62/88/6
f 44/89/2 35/90/2 38/91/2 45/92/2
f 63/93/7 61/94/7 62/95/7 64/96/7
f 65/97/8 43/98/8 46/99/8 66/100/8
f 52/101/9 67/102/9 68/103/9 53/104/9
f 69/105/10 7/106/10 41/107/10 70/108/10
f 9/109/11 12/110/11 44/111/11 43/112/11
f 19/113/12 18/114/12 54/115/12 53/116/12
f 29/117/13 27/118/13 61/119/13 63/120/13
f 33/121/14 19/122/14 53/123/14 68/124/14
f 13/125/15 16/126/15 48/127/15 47/128/15
f 21/129/16 15/130/16 49/131/16 56/132/16
f 31/133/17 9/134/17 43/135/17 65/136/17
f 17/137/13 20/138/13 52/139/13 51/140/13
f 25/141/18 24/142/18 60/143/18 59/144/18
f 20/145/19 34/146/19 67/147/19 52/148/19
f 16/149/20 22/150/20 55/151/20 48/152/20
f 24/153/21 3/154/21 37/155/21 60/156/21
f 3/157/21 2/158/21 38/159/21 37/160/21
f 23/161/13 26/162/13 58/163/13 57/164/13
f 18/165/22 28/166/22 62/167/22 54/168/22
f 71/169/23 21/170/23 56/171/23 72/172/23
f 4/173/11 23/174/11 57/175/11 36/176/11
f 2/177/21 11/178/21 45/179/21 38/180/21
f 1/181/11 4/182/11 36/183/11 35/184/11
f 11/185/21 10/186/21 46/187/21 45/188/21
f 27/189/24 17/190/24 51/191/24 61/192/24
f 73/193/25 25/194/25 59/195/25 74/196/25
f 5/197/26 8/198/26 40/199/26 39/200/26
f 75/201/27 33/202/27 68/203/27 76/204/27
f 12/205/11 1/206/11 35/207/11 44/208/11
f 8/209/28 77/210/28 78/211/28 40/212/28
f 10/213/29 32/214/29 66/215/29 46/216/29
f 77/217/30 69/218/30 70/219/30 78/220/30
f 32/221/31 31/222/31 65/223/31 66/224/31
f 40/225/32 78/226/32 70/227/32 41/228/32
f 8/229/1 7/230/1 69/231/1 77/232/1
f 22/233/26 79/234/26 80/235/26 55/236/26
f 79/237/26 81/238/26 82/239/26 80/240/26
f 81/241/26 83/242/26 84/243/26 82/244/26
f 83/245/26 85/246/26 86/247/26 84/248/26
f 85/249/26 5/250/26 39/251/26 86/252/26
f 7/253/23 6/254/23 42/255/23 41/256/23
f 6/257/23 87/258/23 88/259/23 42/260/23
f 87/261/23 89/262/23 90/263/23 88/264/23
f 89/265/23 91/266/23 92/267/23 90/268/23
f 91/269/23 71/270/23 72/271/23 92/272/23
f 55/273/2 80/274/2 72/275/2 56/276/2
f 80/277/33 82/278/33 92/279/33 72/280/33
f 82/281/34 84/282/34 90/283/34 92/284/34
f 84/285/35 86/286/35 88/287/35 90/288/35
f 86/289/36 39/290/36 42/291/36 88/292/36
f 22/293/1 21/294/1 71/295/1 79/296/1
f 79/297/1 71/298/1 91/299/1 81/300/1
f 81/301/1 91/302/1 89/303/1 83/304/1
f 83/305/1 89/306/1 87/307/1 85/308/1
f 85/309/1 87/310/1 6/311/1 5/312/1
f 15/313/27 14/314/27 50/315/27 49/316/27
f 14/317/27 93/318/27 94/319/27 50/320/27
f 93/321/27 95/322/27 96/323/27 94/324/27
f 97/325/15 98/326/15 99/327/15 100/328/15
f 98/329/15 101/330/15 102/331/15 99/332/15
f 101/333/15 13/334/15 47/335/15 102/336/15
f 100/337/37 99/338/37 96/339/37 103/340/37
f 99/341/38 102/342/38 94/343/38 96/344/38
f 102/345/39 47/346/39 50/347/39 94/348/39
f 97/349/1 104/350/1 95/351/1 98/352/1
f 98/353/1 95/354/1 93/355/1 101/356/1
f 101/357/1 93/358/1 14/359/1 13/360/1
f 34/361/1 33/362/1 75/363/1 105/364/1
f 105/365/1 75/366/1 104/367/1 97/368/1
f 67/369/2 106/370/2 76/371/2 68/372/2
f 106/373/40 100/374/40 103/375/40 76/376/40
f 34/377/15 105/378/15 106/379/15 67/380/15
f 105/381/15 97/382/15 100/383/15 106/384/15
f 95/385/27 104/386/27 103/387/27 96/388/27
f 104/389/27 75/390/27 76/391/27 103/392/27
f 28/393/25 30/394/25 64/395/25 62/396/25
f 30/397/25 107/398/25 108/399/25 64/400/25
f 107/401/25 73/402/25 74/403/25 108/404/25
f 26/405/13 109/406/13 110/407/13 58/408/13
f 109/409/13 111/410/13 112/411/13 110/412/13
f 111/413/13 29/414/13 63/415/13 112/416/13
f 58/417/41 110/418/41 74/419/41 59/420/41
f 110/421/42 112/422/42 108/423/42 74/424/42
f 112/425/43 63/426/43 64/427/43 108/428/43
f 26/429/1 25/430/1 73/431/1 109/432/1
f 109/433/1 73/434/1 107/435/1 111/436/1
f 111/437/1 107/438/1 30/439/1 29/440/1
f 113/441/11 114/442/11 115/443/11 116/444/11
f 117/445/44 118/446/44 119/447/44 120/448/44
f 121/449/45 122/450/45 119/451/45 123/452/45
f 124/453/11 125/454/11 114/455/11 113/456/11
f 126/457/11 124/458/11 113/459/11 127/460/11
f 128/461/26 120/462/26 129/463/26 130/464/26
f 127/465/11 113/466/11 116/467/11
f 131/468/46 118/469/46 132/470/46 133/471/46
f 134/472/15 135/473/15 136/474/15 137/475/15
f 138/476/13 139/477/13 140/478/13 141/479/13
f 120/480/20 128/481/20 137/482/20 136/483/20
f 117/484/1 120/485/1 136/486/1 135/487/1
f 142/488/13 143/489/13 144/490/13 145/491/13
f 146/492/11 147/493/11 148/494/11 149/495/11
f 150/496/1 139/497/1 143/498/1 142/499/1
f 139/500/24 138/501/24 144/502/24 143/503/24
f 139/504/1 117/505/1 135/506/1 140/507/1
f 151/508/11 147/509/11 124/510/11 126/511/11
f 147/512/11 146/513/11 125/514/11 124/515/11
f 132/516/13 139/517/13 150/518/13
f 152/519/47 119/520/47 122/521/47
f 153/522/1 150/523/1 142/524/1 154/525/1
f 154/526/13 142/527/13 145/528/13 155/529/13
f 139/530/44 132/531/44 118/532/44 117/533/44
f 156/534/20 157/535/20 122/536/20 121/537/20
f 120/538/47 119/539/47 152/540/47
f 122/541/26 157/542/26 158/543/26 159/544/26
f 160/545/26 161/546/26 162/547/26 163/548/26
f 157/549/26 128/550/26 130/551/26 160/552/26 163/553/26 158/554/26
f 152/555/26 161/556/26 129/557/26 120/558/26
f 123/559/46 119/560/46 118/561/46 131/562/46
f 152/563/26 162/564/26 161/565/26
f 122/566/26 159/567/26 162/568/26 152/569/26
f 164/570/19 165/571/19 141/572/19 140/573/19
f 165/574/19 166/575/19 134/576/19 141/577/19
f 167/578/19 164/579/19 140/580/19 135/581/19
f 166/582/19 167/583/19 135/584/19 134/585/19
f 168/586/21 169/587/21 170/588/21 171/589/21
f 172/590/48 173/591/49 174/592/50
f 175/593/51 176/594/51 174/595/51 177/596/51
f 178/597/52 168/598/21 171/599/21 179/600/53
f 180/601/54 181/602/21 168/603/21 178/604/52
f 129/605/2 161/606/2 182/607/2 183/608/2
f 181/609/21 169/610/21 168/611/21
f 184/612/55 185/613/55 186/614/55
f 187/615/56 188/616/56 189/617/56 190/618/56
f 191/619/57 192/620/57 193/621/57 186/622/57
f 176/623/58 189/624/58 188/625/58 194/626/58
f 175/627/59 190/628/59 189/629/59 176/630/59
f 195/631/60 196/632/60 197/633/60 198/634/60
f 199/635/61 200/636/61 201/637/61 202/638/61
f 185/639/62 195/640/62 198/641/62 186/642/62
f 186/643/63 198/644/63 197/645/63 191/646/63
f 186/647/64 193/648/64 190/649/64 175/650/64
f 203/651/65 180/652/54 178/653/52 202/654/66
f 202/655/66 178/656/52 179/657/53 199/658/67
f 186/659/68 175/660/68 177/661/68 184/662/68
f 204/663/69 205/664/69 177/665/70 174/666/70
f 206/667/71 207/668/71 195/669/72 185/670/72
f 207/671/73 208/672/73 196/673/74 195/674/74
f 209/675/75 206/676/76 185/677/77 184/678/77
f 210/679/78 211/680/79 173/681/80 212/682/80
f 211/683/81 204/684/82 174/685/83 173/686/83
f 205/687/84 209/688/84 184/689/85 177/690/85
f 163/691/86 162/692/86 213/693/86 214/694/86
f 130/695/86 129/696/86 183/697/86 215/698/86
f 161/699/87 160/700/87 216/701/87 182/702/87
f 158/703/1 163/704/1 214/705/1 217/706/1
f 176/707/88 172/708/48 174/709/50
f 172/710/89 176/711/89 218/712/89 219/713/89
f 164/714/2 167/715/2 220/716/2 221/717/2
f 222/718/90 193/719/90 192/720/90 223/721/90
f 166/722/1 165/723/1 224/724/1 225/725/1
f 125/726/2 146/727/2 199/728/2 179/729/2
f 128/730/2 157/731/2 212/732/2 194/733/2
f 115/734/2 114/735/2 171/736/2 170/737/2
f 134/738/2 137/739/2 188/740/2 187/741/2
f 138/742/2 141/743/2 192/744/2 191/745/2
f 137/746/2 128/747/2 194/748/2 188/749/2
f 155/750/2 145/751/2 196/752/2 208/753/2
f 146/754/2 149/755/2 200/756/2 199/757/2
f 144/758/2 138/759/2 191/760/2 197/761/2
f 114/762/2 125/763/2 179/764/2 171/765/2
f 223/766/91 192/767/91 187/768/91 226/769/91
f 145/770/2 144/771/2 197/772/2 196/773/2
f 227/774/92 115/775/92 170/776/92 228/777/92
f 212/778/93 229/779/93 230/780/93 231/781/93 232/782/93 194/783/93
f 194/784/94 232/785/94 218/786/94 176/787/94
f 231/788/95 230/789/95 233/790/95 219/791/95
f 172/792/96 219/793/97 233/794/98
f 159/795/87 158/796/87 217/797/87 234/798/87
f 162/799/2 159/800/2 234/801/2 213/802/2
f 173/803/99 235/804/99 229/805/99 212/806/99
f 173/807/100 172/808/96 233/809/98 235/810/100
f 236/811/101 190/812/101 193/813/101 222/814/101
f 141/815/2 134/816/2 187/817/2 192/818/2
f 167/819/102 166/820/102 225/821/102 220/822/102
f 226/823/103 187/824/103 190/825/103 236/826/103
f 157/827/104 156/828/104 210/829/104 212/830/104
f 156/831/105 227/832/105 228/833/105 210/834/105
f 149/835/2 237/836/2 238/837/2 200/838/2
f 237/839/2 155/840/2 208/841/2 238/842/2
f 180/843/106 203/844/106 239/845/107 240/846/107
f 240/847/107 239/848/107 209/849/84 205/850/84
f 169/851/108 181/852/108 241/853/109 242/854/110
f 242/855/110 241/856/109 204/857/82 211/858/81
f 170/859/111 169/860/111 242/861/112 228/862/113
f 228/863/113 242/864/112 211/865/79 210/866/78
f 203/867/114 202/868/114 243/869/115 239/870/116
f 239/871/116 243/872/115 206/873/76 209/874/75
f 201/875/117 200/876/117 238/877/118 244/878/118
f 244/879/118 238/880/118 208/881/73 207/882/73
f 202/883/119 201/884/119 244/885/120 243/886/120
f 243/887/120 244/888/120 207/889/71 206/890/71
f 181/891/121 180/892/121 240/893/122 241/894/122
f 241/895/122 240/896/122 205/897/69 204/898/69
f 126/899/1 245/900/1 246/901/1 151/902/1
f 245/903/1 131/904/1 133/905/1 246/906/1
f 116/907/123 247/908/123 248/909/123 127/910/123
f 247/911/123 121/912/123 123/913/123 248/914/123
f 115/915/20 227/916/20 247/917/20 116/918/20
f 227/919/20 156/920/20 121/921/20 247/922/20
f 151/923/13 246/924/13 249/925/13 147/926/13
f 246/927/13 133/928/13 153/929/13 249/930/13
f 148/931/13 250/932/13 237/933/13 149/934/13
f 250/935/13 154/936/13 155/937/13 237/938/13
f 147/939/1 249/940/1 250/941/1 148/942/1
f 249/943/1 153/944/1 154/945/1 250/946/1
f 127/947/1 248/948/1 245/949/1 126/950/1
f 248/951/1 123/952/1 131/953/1 245/954/1
f 223/955/124 226/956/124 225/957/124 224/958/124
f 222/959/125 223/960/125 224/961/125 221/962/125
f 221/963/126 220/964/126 236/965/126 222/966/126
f 220/967/127 225/968/127 226/969/127 236/970/127
f 165/971/128 164/972/128 221/973/128 224/974/128
f 232/975/129 231/976/129 216/977/129 215/978/129
f 218/979/130 232/980/130 215/981/130 183/982/130
f 231/983/131 219/984/131 182/985/131 216/986/131
f 183/987/132 182/988/132 219/989/132 218/990/132
f 230/991/133 229/992/133 217/993/133 214/994/133
f 233/995/134 230/996/134 214/997/134 213/998/134
f 229/999/135 235/1000/135 234/1001/135 217/1002/135
f 213/1003/136 234/1004/136 235/1005/136 233/1006/136
f 160/1007/1 130/1008/1 215/1009/1 216/1010/1
f 133/1011/13 132/1012/13 150/1013/13 153/1014/13
