# Blender v2.79 (sub 0) OBJ File: 'Hütte.blend'
# www.blender.org
mtllib Stein122.mtl
o Plane_Plane.001
v -1.439895 0.000000 1.775978
v -0.742991 0.000000 1.775978
v -2.569200 0.000000 -1.775978
v 1.630303 0.630947 -1.775978
v -2.569200 1.978070 -1.775978
v -1.439895 1.224893 1.775978
v -0.742991 1.224893 1.775978
v 1.630303 1.390998 -1.775978
v -2.569200 0.000000 0.000000
v 2.569200 0.000000 0.000000
v -2.569200 2.678722 0.000000
v 2.569200 2.678722 0.000000
v -2.569200 0.000000 1.775978
v 2.569200 0.000000 1.775978
v -2.569200 1.978070 1.775978
v 2.569200 1.978070 1.775978
v 0.000000 0.000000 1.775978
v 0.938897 0.630947 -1.775978
v 0.000000 1.978070 1.775978
v 0.938897 1.390998 -1.775978
v 0.000000 2.678722 0.000000
v 0.000000 0.000000 0.000000
v 1.630303 0.630947 1.775978
v 2.569200 1.978070 -1.775978
v 2.569200 0.000000 -1.775978
v 0.000000 0.000000 -1.775978
v 0.000000 1.978070 -1.775978
v -0.938897 0.630947 -1.775978
v -0.938897 1.390998 -1.775978
v -1.630303 0.630947 -1.775978
v -1.630303 1.390998 -1.775978
v 1.630303 1.390998 1.775978
v 0.938897 0.630947 1.775978
v 0.938897 1.390998 1.775978
vn 0.0000 -1.0000 0.0000
vn 0.0000 0.9302 -0.3670
vn 1.0000 0.0000 0.0000
vn -1.0000 0.0000 0.0000
vn 0.0000 0.9302 0.3670
vn 0.0000 0.0000 1.0000
vn 0.0000 0.0000 -1.0000
usemtl None
s off
f 22//1 26//1 25//1 10//1
f 21//2 12//2 24//2 27//2
f 10//3 25//3 24//3 12//3
f 9//4 13//4 15//4 11//4
f 3//4 9//4 11//4 5//4
f 14//3 10//3 12//3 16//3
f 19//5 16//5 12//5 21//5
f 17//1 22//1 10//1 14//1
f 1//6 6//6 15//6 13//6
f 6//6 7//6 19//6 15//6
f 13//1 9//1 22//1 17//1
f 15//5 19//5 21//5 11//5
f 28//7 29//7 27//7 26//7
f 11//2 21//2 27//2 5//2
f 9//1 3//1 26//1 22//1
f 4//7 8//7 24//7 25//7
f 18//7 4//7 25//7 26//7
f 8//7 20//7 27//7 24//7
f 20//7 18//7 26//7 27//7
f 30//7 28//7 26//7 3//7
f 29//7 31//7 5//7 27//7
f 31//7 30//7 3//7 5//7
f 7//6 2//6 17//6 19//6
f 23//6 14//6 16//6 32//6
f 33//6 17//6 14//6 23//6
f 32//6 16//6 19//6 34//6
f 34//6 19//6 17//6 33//6
l 14 2
