# Blender v2.79 (sub 0) OBJ File: 'SteinePack1.blend'
# www.blender.org
mtllib Stein005.mtl
o Cube.001_Cube.009
v -0.440316 -0.755273 4.085617
v -0.178645 -0.322007 3.975906
v 0.200859 -0.823404 4.166161
v 0.363723 -0.374158 3.826196
v -0.320294 -0.558069 3.985662
v 0.387540 -0.640672 3.870363
v 0.609873 -0.691074 4.663903
v 0.238049 -0.242574 4.346032
v 0.451598 -0.237420 4.082329
v 0.585306 -0.412856 4.451794
v 0.299289 -0.297140 4.697469
v -0.335206 -0.216615 4.404253
v -0.074962 -0.250777 4.524053
v -0.517807 -0.317636 4.634282
v -0.135669 -0.330243 4.739507
v 0.174963 -0.413486 5.151597
v 0.392833 -0.597560 5.010916
v -0.135923 -0.645375 4.803392
v -0.244504 -0.443164 5.018742
v -0.638538 -0.630131 4.624405
v -0.640364 -0.432361 4.869488
vt 0.795019 0.903210
vt 0.729355 0.849396
vt 0.729371 0.759494
vt 0.788427 0.755532
vt 0.831741 0.818055
vt 0.830222 0.876994
vt 0.666114 0.861678
vt 0.797591 0.974459
vt 0.919441 0.861472
vt 0.695618 0.697916
vt 0.890714 0.757334
vt 0.795397 0.697916
vt 0.120108 0.603302
vt 0.087255 0.723720
vt 0.000243 0.565929
vt 0.103093 0.547219
vt 0.220520 0.457888
vt 0.267793 0.406551
vt 0.393200 0.582510
vt 0.286394 0.561870
vt 0.156293 0.548794
vt 0.145978 0.477500
vt 0.197439 0.639312
vt 0.150099 0.619634
vt 0.240575 0.723720
vt 0.045980 0.404121
vt 0.115127 0.494172
vn 0.4075 0.4571 -0.7906
vn -0.3855 0.6207 -0.6828
vn -0.4274 0.8916 -0.1491
vn -0.0209 0.9930 0.1157
vn 0.1360 0.9904 0.0231
vn 0.6138 0.7521 -0.2400
vn -0.5930 -0.0698 -0.8021
vn 0.5056 -0.3786 -0.7753
vn 0.9438 0.3262 0.0529
vn -0.5923 0.8054 -0.0241
vn 0.3627 0.8738 0.3239
vn -0.0649 0.9500 0.3055
vn 0.1300 0.2672 0.9548
vn -0.3035 0.1601 0.9392
vn -0.6515 -0.6367 -0.4125
vn 0.2170 -0.9386 -0.2680
vn -0.1387 -0.8898 0.4347
vn -0.8580 -0.5109 0.0535
vn 0.7818 -0.5258 0.3352
vn 0.5666 -0.3564 0.7429
vn -0.7814 0.1853 0.5958
usemtl None
s 1
f 4/1/1 2/2/2 12/3/3 13/4/4 8/5/5 9/6/6
f 5/7/7 2/2/2 4/1/1 6/8/8
f 6/8/8 4/1/1 9/6/6 10/9/9
f 14/10/10 12/3/3 2/2/2 5/7/7
f 11/11/11 8/5/5 13/4/4 15/12/12
f 16/13/13 11/14/11 15/15/12 19/16/14
f 1/17/15 5/18/7 6/19/8 3/20/16
f 1/17/15 3/20/16 18/21/17 20/22/18
f 3/20/16 7/23/19 17/24/20 18/21/17
f 8/5/5 11/11/11 10/9/9 9/6/6
f 3/20/16 6/19/8 10/25/9 7/23/19
f 15/12/12 13/4/4 12/3/3 14/10/10
f 1/17/15 14/26/10 5/18/7
f 19/16/14 15/15/12 14/26/10 21/27/21
f 20/22/18 18/21/17 19/16/14 21/27/21
f 18/21/17 17/24/20 16/13/13 19/16/14
f 11/14/11 16/13/13 17/24/20
f 10/25/9 11/14/11 17/24/20 7/23/19
f 20/22/18 21/27/21 14/26/10 1/17/15
