# Blender v2.79 (sub 0) OBJ File: ''
# www.blender.org
mtllib Steinplatte.mtl
o Cube
v 0.909069 0.001209 -0.102742
v 0.890009 0.125860 -0.113477
v 0.909069 0.099978 -0.111392
v 1.000000 0.142909 -0.148602
v 1.000000 0.142909 -0.066070
v 1.000000 -0.142909 -0.123571
v 0.944844 0.217805 0.034162
v 0.944844 0.217805 -0.154635
v -0.944844 -0.217805 0.944844
v -0.944844 -0.142909 1.000000
v -1.000000 -0.142909 0.944844
v -0.944844 0.142909 1.000000
v -0.944844 0.217805 0.944844
v -1.000000 0.142909 0.944844
v -0.944844 -0.217805 -0.944844
v -1.000000 -0.142909 -0.944844
v -0.944844 -0.142909 -1.000000
v -0.944844 0.217805 -0.944844
v -0.944844 0.142909 -1.000000
v -1.000000 0.142909 -0.944844
v 0.944844 -0.217805 0.944844
v 1.000000 -0.142909 0.944844
v 0.944844 -0.142909 1.000000
v 0.944844 0.217805 0.944844
v 0.944844 0.142909 1.000000
v 1.000000 0.142909 0.944844
v 0.944844 -0.217805 -0.944844
v 0.944844 -0.142909 -1.000000
v 1.000000 -0.142909 -0.944844
v 0.944844 0.217805 -0.944844
v 1.000000 0.142909 -0.944844
v 0.944844 0.142909 -1.000000
v 0.909069 0.099978 -0.082871
v 0.890009 0.125860 -0.048234
vt 0.309511 0.401849
vt 0.308838 0.448041
vt 0.013098 0.447651
vt 0.013771 0.401459
vt 0.849408 0.069797
vt 0.999913 0.223692
vt 0.713726 0.243209
vt 0.679956 0.171717
vt 0.694743 0.232432
vt 0.690345 0.212197
vt 0.698466 0.233389
vt 0.730912 0.308757
vt 0.234122 0.308757
vt 0.373744 0.131875
vt 0.616409 0.154766
vt 0.691489 0.258283
vt 0.709378 0.257962
vt 0.377893 0.143771
vt 0.374462 0.149555
vt 0.000087 0.200432
vt 0.152318 0.073500
vt 0.013098 0.370385
vt 0.013770 0.324193
vt 0.309509 0.324576
vt 0.308838 0.370768
vt 0.011063 0.386204
vt 0.000295 0.399670
vt 0.010505 0.463296
vt 0.000087 0.449550
vt 0.010505 0.386030
vt 0.000087 0.372284
vt 0.011062 0.308938
vt 0.000294 0.322404
vt 0.312104 0.386204
vt 0.322522 0.399950
vt 0.311546 0.463297
vt 0.322314 0.449830
vt 0.311546 0.386024
vt 0.322314 0.372557
vt 0.312103 0.308932
vt 0.322521 0.322677
vt 0.311372 0.000087
vt 0.385300 0.173288
vt 0.613852 0.186579
vt 0.700378 0.017535
vt 0.616236 0.177001
vt 0.682005 0.229839
vt 0.615722 0.169792
vt 0.696740 0.239620
vt 0.699491 0.239143
vn 0.0000 0.0000 1.0000
vn 1.0000 0.0000 0.0000
vn 0.0000 1.0000 0.0000
vn -1.0000 0.0000 0.0000
vn 0.0000 0.0000 -1.0000
vn -0.6272 -0.4619 0.6272
vn -0.6929 -0.1996 0.6929
vn -0.6929 0.1996 0.6929
vn -0.6272 0.4619 0.6272
vn -0.6272 -0.4619 -0.6272
vn -0.6929 -0.1996 -0.6929
vn -0.6272 0.4619 -0.6272
vn -0.6929 0.1996 -0.6929
vn 0.6272 -0.4619 0.6272
vn 0.6929 -0.1996 0.6929
vn 0.6272 0.4619 0.6272
vn 0.6929 0.1996 0.6929
vn 0.6272 -0.4619 -0.6272
vn 0.6929 -0.1996 -0.6929
vn 0.6272 0.4619 -0.6272
vn 0.6929 0.1996 -0.6929
vn -0.8052 -0.5930 0.0000
vn -0.8052 0.5930 0.0000
vn 0.0000 -0.5930 -0.8052
vn 0.0000 0.5930 -0.8052
vn 0.8052 -0.5930 0.0000
vn 0.8052 0.5930 0.0000
vn 0.0000 -0.5930 0.8052
vn 0.0000 0.5930 0.8052
vn 0.0000 -1.0000 0.0000
vn -0.2184 0.7203 -0.6584
vn 0.2967 0.1839 0.9371
vn 0.2561 0.2636 0.9300
vn 0.3050 0.1667 0.9377
vn 0.3441 0.0819 0.9354
vn 0.8589 -0.5122 0.0000
vn 0.0877 0.1965 -0.9766
usemtl None
s 1
f 23/1/1 25/2/1 12/3/1 10/4/1
f 29/5/2 31/6/2 4/7/2 6/8/2
f 33/9/2 1/10/2 3/11/2
f 30/12/3 18/13/3 13/14/3 24/15/3 7/16/3 8/17/3
f 11/18/4 14/19/4 20/20/4 16/21/4
f 17/22/5 19/23/5 32/24/5 28/25/5
f 9/26/6 10/4/7 11/27/7
f 12/3/8 13/28/9 14/29/8
f 15/30/10 16/31/11 17/22/11
f 18/32/12 19/23/13 20/33/13
f 21/34/14 22/35/15 23/1/15
f 24/36/16 25/2/17 26/37/17
f 27/38/18 28/25/19 29/39/19
f 30/40/20 31/41/21 32/24/21
f 15/42/22 9/43/22 11/18/22 16/21/22
f 10/4/7 12/3/8 14/29/8 11/27/7
f 13/14/23 18/13/23 20/20/23 14/19/23
f 19/23/13 17/22/11 16/31/11 20/33/13
f 27/38/24 15/30/24 17/22/24 28/25/24
f 18/32/25 30/40/25 32/24/25 19/23/25
f 31/41/21 29/39/19 28/25/19 32/24/21
f 21/44/26 27/45/26 29/5/26 6/8/26 22/46/26
f 30/12/27 8/17/27 4/7/27 31/6/27
f 25/2/17 23/1/15 22/35/15 26/37/17
f 9/26/28 21/34/28 23/1/28 10/4/28
f 24/36/29 13/28/29 12/3/29 25/2/29
f 15/42/30 27/45/30 21/44/30 9/43/30
f 6/8/2 5/47/2 26/48/2 22/46/2
f 7/16/31 5/47/31 33/9/31 34/49/31
f 4/7/32 8/17/33 2/50/33 3/11/34
f 5/47/27 7/16/27 24/15/27 26/48/27
f 3/11/27 2/50/27 34/49/27 33/9/27
f 6/8/35 4/7/32 3/11/34 1/10/35
f 8/17/36 7/16/36 34/49/36 2/50/36
f 5/47/37 6/8/37 1/10/37 33/9/37
